[api-updater (non-obsolete-error-filter)] 06/07/2022 13:08:18 : Starting /home/br1/Unity/Hub/Editor/2020.3.35f1/Editor/Data/Tools/ScriptUpdater/APIUpdater.NonObsoleteApiUpdaterDetector.exe
[api-updater (non-obsolete-error-filter)] 
----------------------------------
jit/startup time      : 90,72ms
moved types parse time: 50ms
candidates parse time : 1ms
C# parse time         : 225ms
candidates check time : 32ms
console write time    : 0ms

[api-updater (non-obsolete-error-filter)] 08/07/2022 14:14:08 : Starting /home/br1/Unity/Hub/Editor/2020.3.35f1/Editor/Data/Tools/ScriptUpdater/APIUpdater.NonObsoleteApiUpdaterDetector.exe
[api-updater (non-obsolete-error-filter)] 
----------------------------------
jit/startup time      : 70,174ms
moved types parse time: 64ms
candidates parse time : 1ms
C# parse time         : 226ms
candidates check time : 38ms
console write time    : 0ms

[api-updater (non-obsolete-error-filter)] 08/07/2022 16:49:31 : Starting /home/br1/Unity/Hub/Editor/2020.3.35f1/Editor/Data/Tools/ScriptUpdater/APIUpdater.NonObsoleteApiUpdaterDetector.exe
[api-updater (non-obsolete-error-filter)] 
----------------------------------
jit/startup time      : 78,834ms
moved types parse time: 54ms
candidates parse time : 1ms
C# parse time         : 252ms
candidates check time : 46ms
console write time    : 0ms

